2024-06-25 20:45:53 INFO  [io.quarkus] (Quarkus Main Thread) user-manager 1.0.0-SNAPSHOT on JVM (powered by Quarkus 3.11.2) started in 4.173s. Listening on: http://localhost:8080
2024-06-25 20:45:53 INFO  [io.quarkus] (Quarkus Main Thread) Profile dev activated. Live Coding activated.
2024-06-25 20:45:53 INFO  [io.quarkus] (Quarkus Main Thread) Installed features: [agroal, cdi, hibernate-orm, hibernate-orm-panache, jdbc-postgresql, narayana-jta, resteasy, resteasy-jsonb, smallrye-context-propagation, vertx]
2024-06-25 20:50:08 INFO  [io.qu.de.de.fi.StaticFileManager] (vert.x-worker-thread-1) Ignoring module-info.java in dev mode, set the `quarkus.live-reload.ignore-module-info` property to `false` in your project descriptor (`pom.xml` or `build.gradle`) to disable this behavior.
2024-06-25 20:50:08 INFO  [io.qu.de.de.RuntimeUpdatesProcessor] (vert.x-worker-thread-1) Restarting quarkus due to changes in SecurityService.class.
2024-06-25 20:50:08 INFO  [io.quarkus] (Quarkus Main Thread) user-manager stopped in 0.022s
