2024-06-25 20:50:09 INFO  [io.quarkus] (Quarkus Main Thread) user-manager 1.0.0-SNAPSHOT on JVM (powered by Quarkus 3.11.2) started in 0.557s. Listening on: http://localhost:8080
2024-06-25 20:50:09 INFO  [io.quarkus] (Quarkus Main Thread) Profile dev activated. Live Coding activated.
2024-06-25 20:50:09 INFO  [io.quarkus] (Quarkus Main Thread) Installed features: [agroal, cdi, hibernate-orm, hibernate-orm-panache, jdbc-postgresql, narayana-jta, resteasy, resteasy-jsonb, smallrye-context-propagation, vertx]
2024-06-25 20:50:09 INFO  [io.qu.de.de.RuntimeUpdatesProcessor] (vert.x-worker-thread-1) Live reload total time: 1.718s 
2024-06-25 20:50:10 WARN  [or.hi.en.jd.sp.SqlExceptionHelper] (executor-thread-2) SQL Error: 0, SQLState: 23505
2024-06-25 20:50:10 ERROR [or.hi.en.jd.sp.SqlExceptionHelper] (executor-thread-2) ERROR: llave duplicada viola restricción de unicidad «users_username_key»
  Detail: Ya existe la llave (username)=(qwer).
