2024-06-25 20:51:18 INFO  [io.quarkus] (Quarkus Main Thread) user-manager 1.0.0-SNAPSHOT on JVM (powered by Quarkus 3.11.2) started in 3.197s. Listening on: http://localhost:8080
2024-06-25 20:51:18 INFO  [io.quarkus] (Quarkus Main Thread) Profile dev activated. Live Coding activated.
2024-06-25 20:51:18 INFO  [io.quarkus] (Quarkus Main Thread) Installed features: [agroal, cdi, hibernate-orm, hibernate-orm-panache, jdbc-postgresql, narayana-jta, resteasy, resteasy-jsonb, smallrye-context-propagation, vertx]
